%YAML 1.1
%TAG !u! tag:unity3d.com,2011:
--- !u!1001 &4935338438402378821
PrefabInstance:
  m_ObjectHideFlags: 0
  serializedVersion: 2
  m_Modification:
    m_TransformParent: {fileID: 0}
    m_Modifications:
    - target: {fileID: 2130300407884418846, guid: f5b099728cdf36040ae6955d007cf734, type: 3}
      propertyPath: m_Parameters.widthMultiplier
      value: 3.2
      objectReference: {fileID: 0}
    - target: {fileID: 7914677051302161273, guid: f5b099728cdf36040ae6955d007cf734, type: 3}
      propertyPath: m_Name
      value: FoodBasket
      objectReference: {fileID: 0}
    - target: {fileID: 7914677051302161273, guid: f5b099728cdf36040ae6955d007cf734, type: 3}
      propertyPath: m_TagString
      value: 10
      objectReference: {fileID: 0}
    - target: {fileID: 7914677051302161276, guid: f5b099728cdf36040ae6955d007cf734, type: 3}
      propertyPath: m_Sprite
      value: 
      objectReference: {fileID: 21300000, guid: 33d75f4a0efc52240a6fc525d42da8ee, type: 3}
    - target: {fileID: 7914677051302161276, guid: f5b099728cdf36040ae6955d007cf734, type: 3}
      propertyPath: m_Size.x
      value: 2.5
      objectReference: {fileID: 0}
    - target: {fileID: 7914677051302161276, guid: f5b099728cdf36040ae6955d007cf734, type: 3}
      propertyPath: m_Size.y
      value: 2.5
      objectReference: {fileID: 0}
    - target: {fileID: 7914677051302161276, guid: f5b099728cdf36040ae6955d007cf734, type: 3}
      propertyPath: m_WasSpriteAssigned
      value: 1
      objectReference: {fileID: 0}
    - target: {fileID: 7914677051302161277, guid: f5b099728cdf36040ae6955d007cf734, type: 3}
      propertyPath: m_LocalPosition.x
      value: 0
      objectReference: {fileID: 0}
    - target: {fileID: 7914677051302161277, guid: f5b099728cdf36040ae6955d007cf734, type: 3}
      propertyPath: m_LocalPosition.y
      value: 0
      objectReference: {fileID: 0}
    - target: {fileID: 7914677051302161277, guid: f5b099728cdf36040ae6955d007cf734, type: 3}
      propertyPath: m_LocalPosition.z
      value: 0
      objectReference: {fileID: 0}
    - target: {fileID: 7914677051302161277, guid: f5b099728cdf36040ae6955d007cf734, type: 3}
      propertyPath: m_LocalRotation.x
      value: 0
      objectReference: {fileID: 0}
    - target: {fileID: 7914677051302161277, guid: f5b099728cdf36040ae6955d007cf734, type: 3}
      propertyPath: m_LocalRotation.y
      value: 0
      objectReference: {fileID: 0}
    - target: {fileID: 7914677051302161277, guid: f5b099728cdf36040ae6955d007cf734, type: 3}
      propertyPath: m_LocalRotation.z
      value: 0
      objectReference: {fileID: 0}
    - target: {fileID: 7914677051302161277, guid: f5b099728cdf36040ae6955d007cf734, type: 3}
      propertyPath: m_LocalRotation.w
      value: 1
      objectReference: {fileID: 0}
    - target: {fileID: 7914677051302161277, guid: f5b099728cdf36040ae6955d007cf734, type: 3}
      propertyPath: m_RootOrder
      value: 0
      objectReference: {fileID: 0}
    - target: {fileID: 7914677051302161277, guid: f5b099728cdf36040ae6955d007cf734, type: 3}
      propertyPath: m_LocalEulerAnglesHint.x
      value: 0
      objectReference: {fileID: 0}
    - target: {fileID: 7914677051302161277, guid: f5b099728cdf36040ae6955d007cf734, type: 3}
      propertyPath: m_LocalEulerAnglesHint.y
      value: 0
      objectReference: {fileID: 0}
    - target: {fileID: 7914677051302161277, guid: f5b099728cdf36040ae6955d007cf734, type: 3}
      propertyPath: m_LocalEulerAnglesHint.z
      value: 0
      objectReference: {fileID: 0}
    - target: {fileID: 7914677051302161279, guid: f5b099728cdf36040ae6955d007cf734, type: 3}
      propertyPath: m_Points.m_Paths.Array.size
      value: 2
      objectReference: {fileID: 0}
    - target: {fileID: 7914677051302161279, guid: f5b099728cdf36040ae6955d007cf734, type: 3}
      propertyPath: m_Points.m_Paths.Array.data[0].Array.size
      value: 49
      objectReference: {fileID: 0}
    - target: {fileID: 7914677051302161279, guid: f5b099728cdf36040ae6955d007cf734, type: 3}
      propertyPath: m_Points.m_Paths.Array.data[1].Array.size
      value: 8
      objectReference: {fileID: 0}
    - target: {fileID: 7914677051302161279, guid: f5b099728cdf36040ae6955d007cf734, type: 3}
      propertyPath: m_SpriteTilingProperty.pivot.x
      value: 0.5
      objectReference: {fileID: 0}
    - target: {fileID: 7914677051302161279, guid: f5b099728cdf36040ae6955d007cf734, type: 3}
      propertyPath: m_SpriteTilingProperty.pivot.y
      value: 0.5
      objectReference: {fileID: 0}
    - target: {fileID: 7914677051302161279, guid: f5b099728cdf36040ae6955d007cf734, type: 3}
      propertyPath: m_SpriteTilingProperty.oldSize.x
      value: 2.5
      objectReference: {fileID: 0}
    - target: {fileID: 7914677051302161279, guid: f5b099728cdf36040ae6955d007cf734, type: 3}
      propertyPath: m_SpriteTilingProperty.oldSize.y
      value: 2.5
      objectReference: {fileID: 0}
    - target: {fileID: 7914677051302161279, guid: f5b099728cdf36040ae6955d007cf734, type: 3}
      propertyPath: m_SpriteTilingProperty.newSize.x
      value: 2.5
      objectReference: {fileID: 0}
    - target: {fileID: 7914677051302161279, guid: f5b099728cdf36040ae6955d007cf734, type: 3}
      propertyPath: m_SpriteTilingProperty.newSize.y
      value: 2.5
      objectReference: {fileID: 0}
    - target: {fileID: 7914677051302161279, guid: f5b099728cdf36040ae6955d007cf734, type: 3}
      propertyPath: m_SpriteTilingProperty.adaptiveTilingThreshold
      value: 0.5
      objectReference: {fileID: 0}
    - target: {fileID: 7914677051302161279, guid: f5b099728cdf36040ae6955d007cf734, type: 3}
      propertyPath: m_Points.m_Paths.Array.data[0].Array.data[0].x
      value: 0.96
      objectReference: {fileID: 0}
    - target: {fileID: 7914677051302161279, guid: f5b099728cdf36040ae6955d007cf734, type: 3}
      propertyPath: m_Points.m_Paths.Array.data[0].Array.data[0].y
      value: -0.08
      objectReference: {fileID: 0}
    - target: {fileID: 7914677051302161279, guid: f5b099728cdf36040ae6955d007cf734, type: 3}
      propertyPath: m_Points.m_Paths.Array.data[0].Array.data[1].x
      value: 1.05
      objectReference: {fileID: 0}
    - target: {fileID: 7914677051302161279, guid: f5b099728cdf36040ae6955d007cf734, type: 3}
      propertyPath: m_Points.m_Paths.Array.data[0].Array.data[1].y
      value: -0.03
      objectReference: {fileID: 0}
    - target: {fileID: 7914677051302161279, guid: f5b099728cdf36040ae6955d007cf734, type: 3}
      propertyPath: m_Points.m_Paths.Array.data[0].Array.data[2].x
      value: 1.05
      objectReference: {fileID: 0}
    - target: {fileID: 7914677051302161279, guid: f5b099728cdf36040ae6955d007cf734, type: 3}
      propertyPath: m_Points.m_Paths.Array.data[0].Array.data[2].y
      value: 0.16
      objectReference: {fileID: 0}
    - target: {fileID: 7914677051302161279, guid: f5b099728cdf36040ae6955d007cf734, type: 3}
      propertyPath: m_Points.m_Paths.Array.data[0].Array.data[3].x
      value: 0.96
      objectReference: {fileID: 0}
    - target: {fileID: 7914677051302161279, guid: f5b099728cdf36040ae6955d007cf734, type: 3}
      propertyPath: m_Points.m_Paths.Array.data[0].Array.data[3].y
      value: 0.19999999
      objectReference: {fileID: 0}
    - target: {fileID: 7914677051302161279, guid: f5b099728cdf36040ae6955d007cf734, type: 3}
      propertyPath: m_Points.m_Paths.Array.data[0].Array.data[4].x
      value: 0.94
      objectReference: {fileID: 0}
    - target: {fileID: 7914677051302161279, guid: f5b099728cdf36040ae6955d007cf734, type: 3}
      propertyPath: m_Points.m_Paths.Array.data[0].Array.data[4].y
      value: 0.39999998
      objectReference: {fileID: 0}
    - target: {fileID: 7914677051302161279, guid: f5b099728cdf36040ae6955d007cf734, type: 3}
      propertyPath: m_Points.m_Paths.Array.data[0].Array.data[5].x
      value: 0.85999995
      objectReference: {fileID: 0}
    - target: {fileID: 7914677051302161279, guid: f5b099728cdf36040ae6955d007cf734, type: 3}
      propertyPath: m_Points.m_Paths.Array.data[0].Array.data[5].y
      value: 0.56
      objectReference: {fileID: 0}
    - target: {fileID: 7914677051302161279, guid: f5b099728cdf36040ae6955d007cf734, type: 3}
      propertyPath: m_Points.m_Paths.Array.data[0].Array.data[6].x
      value: 0.62
      objectReference: {fileID: 0}
    - target: {fileID: 7914677051302161279, guid: f5b099728cdf36040ae6955d007cf734, type: 3}
      propertyPath: m_Points.m_Paths.Array.data[0].Array.data[6].y
      value: 0.59999996
      objectReference: {fileID: 0}
    - target: {fileID: 7914677051302161279, guid: f5b099728cdf36040ae6955d007cf734, type: 3}
      propertyPath: m_Points.m_Paths.Array.data[0].Array.data[7].x
      value: 0.66999996
      objectReference: {fileID: 0}
    - target: {fileID: 7914677051302161279, guid: f5b099728cdf36040ae6955d007cf734, type: 3}
      propertyPath: m_Points.m_Paths.Array.data[0].Array.data[7].y
      value: 0.69
      objectReference: {fileID: 0}
    - target: {fileID: 7914677051302161279, guid: f5b099728cdf36040ae6955d007cf734, type: 3}
      propertyPath: m_Points.m_Paths.Array.data[0].Array.data[8].x
      value: 0.59
      objectReference: {fileID: 0}
    - target: {fileID: 7914677051302161279, guid: f5b099728cdf36040ae6955d007cf734, type: 3}
      propertyPath: m_Points.m_Paths.Array.data[0].Array.data[8].y
      value: 0.79999995
      objectReference: {fileID: 0}
    - target: {fileID: 7914677051302161279, guid: f5b099728cdf36040ae6955d007cf734, type: 3}
      propertyPath: m_Points.m_Paths.Array.data[0].Array.data[9].x
      value: 0.5
      objectReference: {fileID: 0}
    - target: {fileID: 7914677051302161279, guid: f5b099728cdf36040ae6955d007cf734, type: 3}
      propertyPath: m_Points.m_Paths.Array.data[0].Array.data[9].y
      value: 0.78999996
      objectReference: {fileID: 0}
    - target: {fileID: 7914677051302161279, guid: f5b099728cdf36040ae6955d007cf734, type: 3}
      propertyPath: m_Points.m_Paths.Array.data[0].Array.data[10].x
      value: 0.48
      objectReference: {fileID: 0}
    - target: {fileID: 7914677051302161279, guid: f5b099728cdf36040ae6955d007cf734, type: 3}
      propertyPath: m_Points.m_Paths.Array.data[0].Array.data[10].y
      value: 0.87
      objectReference: {fileID: 0}
    - target: {fileID: 7914677051302161279, guid: f5b099728cdf36040ae6955d007cf734, type: 3}
      propertyPath: m_Points.m_Paths.Array.data[0].Array.data[11].x
      value: 0.45
      objectReference: {fileID: 0}
    - target: {fileID: 7914677051302161279, guid: f5b099728cdf36040ae6955d007cf734, type: 3}
      propertyPath: m_Points.m_Paths.Array.data[0].Array.data[11].y
      value: 0.84999996
      objectReference: {fileID: 0}
    - target: {fileID: 7914677051302161279, guid: f5b099728cdf36040ae6955d007cf734, type: 3}
      propertyPath: m_Points.m_Paths.Array.data[0].Array.data[12].x
      value: 0.38
      objectReference: {fileID: 0}
    - target: {fileID: 7914677051302161279, guid: f5b099728cdf36040ae6955d007cf734, type: 3}
      propertyPath: m_Points.m_Paths.Array.data[0].Array.data[12].y
      value: 0.78
      objectReference: {fileID: 0}
    - target: {fileID: 7914677051302161279, guid: f5b099728cdf36040ae6955d007cf734, type: 3}
      propertyPath: m_Points.m_Paths.Array.data[0].Array.data[13].x
      value: 0.34
      objectReference: {fileID: 0}
    - target: {fileID: 7914677051302161279, guid: f5b099728cdf36040ae6955d007cf734, type: 3}
      propertyPath: m_Points.m_Paths.Array.data[0].Array.data[13].y
      value: 0.71999997
      objectReference: {fileID: 0}
    - target: {fileID: 7914677051302161279, guid: f5b099728cdf36040ae6955d007cf734, type: 3}
      propertyPath: m_Points.m_Paths.Array.data[0].Array.data[14].x
      value: 0.31
      objectReference: {fileID: 0}
    - target: {fileID: 7914677051302161279, guid: f5b099728cdf36040ae6955d007cf734, type: 3}
      propertyPath: m_Points.m_Paths.Array.data[0].Array.data[14].y
      value: 0.68
      objectReference: {fileID: 0}
    - target: {fileID: 7914677051302161279, guid: f5b099728cdf36040ae6955d007cf734, type: 3}
      propertyPath: m_Points.m_Paths.Array.data[0].Array.data[15].x
      value: 0.34
      objectReference: {fileID: 0}
    - target: {fileID: 7914677051302161279, guid: f5b099728cdf36040ae6955d007cf734, type: 3}
      propertyPath: m_Points.m_Paths.Array.data[0].Array.data[15].y
      value: 0.81
      objectReference: {fileID: 0}
    - target: {fileID: 7914677051302161279, guid: f5b099728cdf36040ae6955d007cf734, type: 3}
      propertyPath: m_Points.m_Paths.Array.data[0].Array.data[16].x
      value: 0.34
      objectReference: {fileID: 0}
    - target: {fileID: 7914677051302161279, guid: f5b099728cdf36040ae6955d007cf734, type: 3}
      propertyPath: m_Points.m_Paths.Array.data[0].Array.data[16].y
      value: 0.84999996
      objectReference: {fileID: 0}
    - target: {fileID: 7914677051302161279, guid: f5b099728cdf36040ae6955d007cf734, type: 3}
      propertyPath: m_Points.m_Paths.Array.data[0].Array.data[17].x
      value: 0.32
      objectReference: {fileID: 0}
    - target: {fileID: 7914677051302161279, guid: f5b099728cdf36040ae6955d007cf734, type: 3}
      propertyPath: m_Points.m_Paths.Array.data[0].Array.data[17].y
      value: 0.87
      objectReference: {fileID: 0}
    - target: {fileID: 7914677051302161279, guid: f5b099728cdf36040ae6955d007cf734, type: 3}
      propertyPath: m_Points.m_Paths.Array.data[0].Array.data[18].x
      value: 0.29
      objectReference: {fileID: 0}
    - target: {fileID: 7914677051302161279, guid: f5b099728cdf36040ae6955d007cf734, type: 3}
      propertyPath: m_Points.m_Paths.Array.data[0].Array.data[18].y
      value: 0.85999995
      objectReference: {fileID: 0}
    - target: {fileID: 7914677051302161279, guid: f5b099728cdf36040ae6955d007cf734, type: 3}
      propertyPath: m_Points.m_Paths.Array.data[0].Array.data[19].x
      value: 0.22999999
      objectReference: {fileID: 0}
    - target: {fileID: 7914677051302161279, guid: f5b099728cdf36040ae6955d007cf734, type: 3}
      propertyPath: m_Points.m_Paths.Array.data[0].Array.data[19].y
      value: 0.77
      objectReference: {fileID: 0}
    - target: {fileID: 7914677051302161279, guid: f5b099728cdf36040ae6955d007cf734, type: 3}
      propertyPath: m_Points.m_Paths.Array.data[0].Array.data[20].x
      value: 0.14
      objectReference: {fileID: 0}
    - target: {fileID: 7914677051302161279, guid: f5b099728cdf36040ae6955d007cf734, type: 3}
      propertyPath: m_Points.m_Paths.Array.data[0].Array.data[20].y
      value: 0.53
      objectReference: {fileID: 0}
    - target: {fileID: 7914677051302161279, guid: f5b099728cdf36040ae6955d007cf734, type: 3}
      propertyPath: m_Points.m_Paths.Array.data[0].Array.data[21].x
      value: 0.16
      objectReference: {fileID: 0}
    - target: {fileID: 7914677051302161279, guid: f5b099728cdf36040ae6955d007cf734, type: 3}
      propertyPath: m_Points.m_Paths.Array.data[0].Array.data[21].y
      value: 0.71
      objectReference: {fileID: 0}
    - target: {fileID: 7914677051302161279, guid: f5b099728cdf36040ae6955d007cf734, type: 3}
      propertyPath: m_Points.m_Paths.Array.data[0].Array.data[22].x
      value: 0.049999997
      objectReference: {fileID: 0}
    - target: {fileID: 7914677051302161279, guid: f5b099728cdf36040ae6955d007cf734, type: 3}
      propertyPath: m_Points.m_Paths.Array.data[0].Array.data[22].y
      value: 0.75
      objectReference: {fileID: 0}
    - target: {fileID: 7914677051302161279, guid: f5b099728cdf36040ae6955d007cf734, type: 3}
      propertyPath: m_Points.m_Paths.Array.data[0].Array.data[23].x
      value: -0.07
      objectReference: {fileID: 0}
    - target: {fileID: 7914677051302161279, guid: f5b099728cdf36040ae6955d007cf734, type: 3}
      propertyPath: m_Points.m_Paths.Array.data[0].Array.data[23].y
      value: 0.77
      objectReference: {fileID: 0}
    - target: {fileID: 7914677051302161279, guid: f5b099728cdf36040ae6955d007cf734, type: 3}
      propertyPath: m_Points.m_Paths.Array.data[0].Array.data[24].x
      value: -0.13
      objectReference: {fileID: 0}
    - target: {fileID: 7914677051302161279, guid: f5b099728cdf36040ae6955d007cf734, type: 3}
      propertyPath: m_Points.m_Paths.Array.data[0].Array.data[24].y
      value: 0.85999995
      objectReference: {fileID: 0}
    - target: {fileID: 7914677051302161279, guid: f5b099728cdf36040ae6955d007cf734, type: 3}
      propertyPath: m_Points.m_Paths.Array.data[0].Array.data[25].x
      value: -0.61
      objectReference: {fileID: 0}
    - target: {fileID: 7914677051302161279, guid: f5b099728cdf36040ae6955d007cf734, type: 3}
      propertyPath: m_Points.m_Paths.Array.data[0].Array.data[25].y
      value: 0.87
      objectReference: {fileID: 0}
    - target: {fileID: 7914677051302161279, guid: f5b099728cdf36040ae6955d007cf734, type: 3}
      propertyPath: m_Points.m_Paths.Array.data[0].Array.data[26].x
      value: -0.64
      objectReference: {fileID: 0}
    - target: {fileID: 7914677051302161279, guid: f5b099728cdf36040ae6955d007cf734, type: 3}
      propertyPath: m_Points.m_Paths.Array.data[0].Array.data[26].y
      value: 0.84999996
      objectReference: {fileID: 0}
    - target: {fileID: 7914677051302161279, guid: f5b099728cdf36040ae6955d007cf734, type: 3}
      propertyPath: m_Points.m_Paths.Array.data[0].Array.data[27].x
      value: -0.59999996
      objectReference: {fileID: 0}
    - target: {fileID: 7914677051302161279, guid: f5b099728cdf36040ae6955d007cf734, type: 3}
      propertyPath: m_Points.m_Paths.Array.data[0].Array.data[27].y
      value: 0.71999997
      objectReference: {fileID: 0}
    - target: {fileID: 7914677051302161279, guid: f5b099728cdf36040ae6955d007cf734, type: 3}
      propertyPath: m_Points.m_Paths.Array.data[0].Array.data[28].x
      value: -0.63
      objectReference: {fileID: 0}
    - target: {fileID: 7914677051302161279, guid: f5b099728cdf36040ae6955d007cf734, type: 3}
      propertyPath: m_Points.m_Paths.Array.data[0].Array.data[28].y
      value: 0.74
      objectReference: {fileID: 0}
    - target: {fileID: 7914677051302161279, guid: f5b099728cdf36040ae6955d007cf734, type: 3}
      propertyPath: m_Points.m_Paths.Array.data[0].Array.data[29].x
      value: -0.7
      objectReference: {fileID: 0}
    - target: {fileID: 7914677051302161279, guid: f5b099728cdf36040ae6955d007cf734, type: 3}
      propertyPath: m_Points.m_Paths.Array.data[0].Array.data[29].y
      value: 0.74
      objectReference: {fileID: 0}
    - target: {fileID: 7914677051302161279, guid: f5b099728cdf36040ae6955d007cf734, type: 3}
      propertyPath: m_Points.m_Paths.Array.data[0].Array.data[30].x
      value: -0.78999996
      objectReference: {fileID: 0}
    - target: {fileID: 7914677051302161279, guid: f5b099728cdf36040ae6955d007cf734, type: 3}
      propertyPath: m_Points.m_Paths.Array.data[0].Array.data[30].y
      value: 0.68
      objectReference: {fileID: 0}
    - target: {fileID: 7914677051302161279, guid: f5b099728cdf36040ae6955d007cf734, type: 3}
      propertyPath: m_Points.m_Paths.Array.data[0].Array.data[31].x
      value: -0.77
      objectReference: {fileID: 0}
    - target: {fileID: 7914677051302161279, guid: f5b099728cdf36040ae6955d007cf734, type: 3}
      propertyPath: m_Points.m_Paths.Array.data[0].Array.data[31].y
      value: 0.63
      objectReference: {fileID: 0}
    - target: {fileID: 7914677051302161279, guid: f5b099728cdf36040ae6955d007cf734, type: 3}
      propertyPath: m_Points.m_Paths.Array.data[0].Array.data[32].x
      value: -0.79999995
      objectReference: {fileID: 0}
    - target: {fileID: 7914677051302161279, guid: f5b099728cdf36040ae6955d007cf734, type: 3}
      propertyPath: m_Points.m_Paths.Array.data[0].Array.data[32].y
      value: 0.59999996
      objectReference: {fileID: 0}
    - target: {fileID: 7914677051302161279, guid: f5b099728cdf36040ae6955d007cf734, type: 3}
      propertyPath: m_Points.m_Paths.Array.data[0].Array.data[33].x
      value: -0.96
      objectReference: {fileID: 0}
    - target: {fileID: 7914677051302161279, guid: f5b099728cdf36040ae6955d007cf734, type: 3}
      propertyPath: m_Points.m_Paths.Array.data[0].Array.data[33].y
      value: 0.63
      objectReference: {fileID: 0}
    - target: {fileID: 7914677051302161279, guid: f5b099728cdf36040ae6955d007cf734, type: 3}
      propertyPath: m_Points.m_Paths.Array.data[0].Array.data[34].x
      value: -1.02
      objectReference: {fileID: 0}
    - target: {fileID: 7914677051302161279, guid: f5b099728cdf36040ae6955d007cf734, type: 3}
      propertyPath: m_Points.m_Paths.Array.data[0].Array.data[34].y
      value: 0.57
      objectReference: {fileID: 0}
    - target: {fileID: 7914677051302161279, guid: f5b099728cdf36040ae6955d007cf734, type: 3}
      propertyPath: m_Points.m_Paths.Array.data[0].Array.data[35].x
      value: -1.03
      objectReference: {fileID: 0}
    - target: {fileID: 7914677051302161279, guid: f5b099728cdf36040ae6955d007cf734, type: 3}
      propertyPath: m_Points.m_Paths.Array.data[0].Array.data[35].y
      value: 0.47
      objectReference: {fileID: 0}
    - target: {fileID: 7914677051302161279, guid: f5b099728cdf36040ae6955d007cf734, type: 3}
      propertyPath: m_Points.m_Paths.Array.data[0].Array.data[36].x
      value: -1.03
      objectReference: {fileID: 0}
    - target: {fileID: 7914677051302161279, guid: f5b099728cdf36040ae6955d007cf734, type: 3}
      propertyPath: m_Points.m_Paths.Array.data[0].Array.data[36].y
      value: 0.42999998
      objectReference: {fileID: 0}
    - target: {fileID: 7914677051302161279, guid: f5b099728cdf36040ae6955d007cf734, type: 3}
      propertyPath: m_Points.m_Paths.Array.data[0].Array.data[37].x
      value: -0.93
      objectReference: {fileID: 0}
    - target: {fileID: 7914677051302161279, guid: f5b099728cdf36040ae6955d007cf734, type: 3}
      propertyPath: m_Points.m_Paths.Array.data[0].Array.data[37].y
      value: 0.26999998
      objectReference: {fileID: 0}
    - target: {fileID: 7914677051302161279, guid: f5b099728cdf36040ae6955d007cf734, type: 3}
      propertyPath: m_Points.m_Paths.Array.data[0].Array.data[38].x
      value: -1.03
      objectReference: {fileID: 0}
    - target: {fileID: 7914677051302161279, guid: f5b099728cdf36040ae6955d007cf734, type: 3}
      propertyPath: m_Points.m_Paths.Array.data[0].Array.data[38].y
      value: 0.16
      objectReference: {fileID: 0}
    - target: {fileID: 7914677051302161279, guid: f5b099728cdf36040ae6955d007cf734, type: 3}
      propertyPath: m_Points.m_Paths.Array.data[0].Array.data[39].x
      value: -1.03
      objectReference: {fileID: 0}
    - target: {fileID: 7914677051302161279, guid: f5b099728cdf36040ae6955d007cf734, type: 3}
      propertyPath: m_Points.m_Paths.Array.data[0].Array.data[40].x
      value: -1.02
      objectReference: {fileID: 0}
    - target: {fileID: 7914677051302161279, guid: f5b099728cdf36040ae6955d007cf734, type: 3}
      propertyPath: m_Points.m_Paths.Array.data[0].Array.data[40].y
      value: -0.049999997
      objectReference: {fileID: 0}
    - target: {fileID: 7914677051302161279, guid: f5b099728cdf36040ae6955d007cf734, type: 3}
      propertyPath: m_Points.m_Paths.Array.data[0].Array.data[41].x
      value: -0.91999996
      objectReference: {fileID: 0}
    - target: {fileID: 7914677051302161279, guid: f5b099728cdf36040ae6955d007cf734, type: 3}
      propertyPath: m_Points.m_Paths.Array.data[0].Array.data[41].y
      value: -0.04
      objectReference: {fileID: 0}
    - target: {fileID: 7914677051302161279, guid: f5b099728cdf36040ae6955d007cf734, type: 3}
      propertyPath: m_Points.m_Paths.Array.data[0].Array.data[42].x
      value: -0.89
      objectReference: {fileID: 0}
    - target: {fileID: 7914677051302161279, guid: f5b099728cdf36040ae6955d007cf734, type: 3}
      propertyPath: m_Points.m_Paths.Array.data[0].Array.data[42].y
      value: -0.29
      objectReference: {fileID: 0}
    - target: {fileID: 7914677051302161279, guid: f5b099728cdf36040ae6955d007cf734, type: 3}
      propertyPath: m_Points.m_Paths.Array.data[0].Array.data[43].x
      value: -0.78999996
      objectReference: {fileID: 0}
    - target: {fileID: 7914677051302161279, guid: f5b099728cdf36040ae6955d007cf734, type: 3}
      propertyPath: m_Points.m_Paths.Array.data[0].Array.data[43].y
      value: -0.90999997
      objectReference: {fileID: 0}
    - target: {fileID: 7914677051302161279, guid: f5b099728cdf36040ae6955d007cf734, type: 3}
      propertyPath: m_Points.m_Paths.Array.data[0].Array.data[44].x
      value: -0.74
      objectReference: {fileID: 0}
    - target: {fileID: 7914677051302161279, guid: f5b099728cdf36040ae6955d007cf734, type: 3}
      propertyPath: m_Points.m_Paths.Array.data[0].Array.data[44].y
      value: -0.94
      objectReference: {fileID: 0}
    - target: {fileID: 7914677051302161279, guid: f5b099728cdf36040ae6955d007cf734, type: 3}
      propertyPath: m_Points.m_Paths.Array.data[0].Array.data[45].x
      value: -0.48
      objectReference: {fileID: 0}
    - target: {fileID: 7914677051302161279, guid: f5b099728cdf36040ae6955d007cf734, type: 3}
      propertyPath: m_Points.m_Paths.Array.data[0].Array.data[45].y
      value: -0.94
      objectReference: {fileID: 0}
    - target: {fileID: 7914677051302161279, guid: f5b099728cdf36040ae6955d007cf734, type: 3}
      propertyPath: m_Points.m_Paths.Array.data[0].Array.data[46].x
      value: 0.78
      objectReference: {fileID: 0}
    - target: {fileID: 7914677051302161279, guid: f5b099728cdf36040ae6955d007cf734, type: 3}
      propertyPath: m_Points.m_Paths.Array.data[0].Array.data[46].y
      value: -0.93
      objectReference: {fileID: 0}
    - target: {fileID: 7914677051302161279, guid: f5b099728cdf36040ae6955d007cf734, type: 3}
      propertyPath: m_Points.m_Paths.Array.data[0].Array.data[47].x
      value: 0.81
      objectReference: {fileID: 0}
    - target: {fileID: 7914677051302161279, guid: f5b099728cdf36040ae6955d007cf734, type: 3}
      propertyPath: m_Points.m_Paths.Array.data[0].Array.data[47].y
      value: -0.90999997
      objectReference: {fileID: 0}
    - target: {fileID: 7914677051302161279, guid: f5b099728cdf36040ae6955d007cf734, type: 3}
      propertyPath: m_Points.m_Paths.Array.data[0].Array.data[48].x
      value: 0.91999996
      objectReference: {fileID: 0}
    - target: {fileID: 7914677051302161279, guid: f5b099728cdf36040ae6955d007cf734, type: 3}
      propertyPath: m_Points.m_Paths.Array.data[0].Array.data[48].y
      value: -0.26
      objectReference: {fileID: 0}
    - target: {fileID: 7914677051302161279, guid: f5b099728cdf36040ae6955d007cf734, type: 3}
      propertyPath: m_Points.m_Paths.Array.data[1].Array.data[0].x
      value: -0.41
      objectReference: {fileID: 0}
    - target: {fileID: 7914677051302161279, guid: f5b099728cdf36040ae6955d007cf734, type: 3}
      propertyPath: m_Points.m_Paths.Array.data[1].Array.data[0].y
      value: 0.76
      objectReference: {fileID: 0}
    - target: {fileID: 7914677051302161279, guid: f5b099728cdf36040ae6955d007cf734, type: 3}
      propertyPath: m_Points.m_Paths.Array.data[1].Array.data[1].x
      value: -0.39
      objectReference: {fileID: 0}
    - target: {fileID: 7914677051302161279, guid: f5b099728cdf36040ae6955d007cf734, type: 3}
      propertyPath: m_Points.m_Paths.Array.data[1].Array.data[1].y
      value: 0.75
      objectReference: {fileID: 0}
    - target: {fileID: 7914677051302161279, guid: f5b099728cdf36040ae6955d007cf734, type: 3}
      propertyPath: m_Points.m_Paths.Array.data[1].Array.data[2].x
      value: -0.26
      objectReference: {fileID: 0}
    - target: {fileID: 7914677051302161279, guid: f5b099728cdf36040ae6955d007cf734, type: 3}
      propertyPath: m_Points.m_Paths.Array.data[1].Array.data[2].y
      value: 0.77
      objectReference: {fileID: 0}
    - target: {fileID: 7914677051302161279, guid: f5b099728cdf36040ae6955d007cf734, type: 3}
      propertyPath: m_Points.m_Paths.Array.data[1].Array.data[3].x
      value: -0.32
      objectReference: {fileID: 0}
    - target: {fileID: 7914677051302161279, guid: f5b099728cdf36040ae6955d007cf734, type: 3}
      propertyPath: m_Points.m_Paths.Array.data[1].Array.data[3].y
      value: 0.78
      objectReference: {fileID: 0}
    - target: {fileID: 7914677051302161279, guid: f5b099728cdf36040ae6955d007cf734, type: 3}
      propertyPath: m_Points.m_Paths.Array.data[1].Array.data[4].x
      value: -0.35
      objectReference: {fileID: 0}
    - target: {fileID: 7914677051302161279, guid: f5b099728cdf36040ae6955d007cf734, type: 3}
      propertyPath: m_Points.m_Paths.Array.data[1].Array.data[4].y
      value: 0.77
      objectReference: {fileID: 0}
    - target: {fileID: 7914677051302161279, guid: f5b099728cdf36040ae6955d007cf734, type: 3}
      propertyPath: m_Points.m_Paths.Array.data[1].Array.data[5].x
      value: -0.35999998
      objectReference: {fileID: 0}
    - target: {fileID: 7914677051302161279, guid: f5b099728cdf36040ae6955d007cf734, type: 3}
      propertyPath: m_Points.m_Paths.Array.data[1].Array.data[5].y
      value: 0.76
      objectReference: {fileID: 0}
    - target: {fileID: 7914677051302161279, guid: f5b099728cdf36040ae6955d007cf734, type: 3}
      propertyPath: m_Points.m_Paths.Array.data[1].Array.data[6].x
      value: -0.39999998
      objectReference: {fileID: 0}
    - target: {fileID: 7914677051302161279, guid: f5b099728cdf36040ae6955d007cf734, type: 3}
      propertyPath: m_Points.m_Paths.Array.data[1].Array.data[6].y
      value: 0.75
      objectReference: {fileID: 0}
    - target: {fileID: 7914677051302161279, guid: f5b099728cdf36040ae6955d007cf734, type: 3}
      propertyPath: m_Points.m_Paths.Array.data[1].Array.data[7].x
      value: -0.39999998
      objectReference: {fileID: 0}
    - target: {fileID: 7914677051302161279, guid: f5b099728cdf36040ae6955d007cf734, type: 3}
      propertyPath: m_Points.m_Paths.Array.data[1].Array.data[7].y
      value: 0.76
      objectReference: {fileID: 0}
    - target: {fileID: 8437173163051972549, guid: f5b099728cdf36040ae6955d007cf734, type: 3}
      propertyPath: m_Parameters.widthMultiplier
      value: 2
      objectReference: {fileID: 0}
    m_RemovedComponents: []
  m_SourcePrefab: {fileID: 100100000, guid: f5b099728cdf36040ae6955d007cf734, type: 3}
